EESchema Schematic File Version 4
EELAYER 30 0
EELAYER END
$Descr A3 16535 11693
encoding utf-8
Sheet 1 1
Title "Encoders board"
Date ""
Rev "1"
Comp "Jacek Łysiak"
Comment1 ""
Comment2 ""
Comment3 ""
Comment4 ""
$EndDescr
$Comp
L Device:C C3
U 1 1 614BC3D3
P 3825 2425
F 0 "C3" H 3940 2471 50  0000 L CNN
F 1 "10nF" H 3940 2380 50  0000 L CNN
F 2 "Capacitor_SMD:C_0805_2012Metric" H 3863 2275 50  0001 C CNN
F 3 "~" H 3825 2425 50  0001 C CNN
	1    3825 2425
	-1   0    0    -1  
$EndComp
Text Notes 600  725  0    50   ~ 0
ROTARY ENCODERS\nU/I CONTROL
$Comp
L Device:Rotary_Encoder_Switch SW1
U 1 1 6157EA02
P 2675 2125
F 0 "SW1" H 2675 1758 50  0000 C CNN
F 1 "PEC11R-4020K-S0024" H 2675 1849 50  0000 C CNN
F 2 "Rotary_Encoder:RotaryEncoder_Alps_EC11E-Switch_Vertical_H20mm_CircularMountingHoles" H 2525 2285 50  0001 C CNN
F 3 "~" H 2675 2385 50  0001 C CNN
F 4 "https://www.tme.eu/ie/en/details/pec11r-4215k-s0024/incremental-type-encoders/bourns/" H 2675 2125 50  0001 C CNN "TME"
	1    2675 2125
	-1   0    0    1   
$EndComp
Text Notes 1550 725  0    50   ~ 0
SEPARATE PCB\nTO MOUNT ON THE PANEL
$Comp
L Device:R R9
U 1 1 6114DEDF
P 3600 2225
F 0 "R9" V 3500 2250 50  0000 L CNN
F 1 "10k" V 3500 2075 50  0000 L CNN
F 2 "Resistor_SMD:R_0402_1005Metric" V 3530 2225 50  0001 C CNN
F 3 "~" H 3600 2225 50  0001 C CNN
	1    3600 2225
	0    -1   1    0   
$EndComp
$Comp
L Device:R R11
U 1 1 6114ECB3
P 3900 2025
F 0 "R11" V 3975 2000 50  0000 L CNN
F 1 "10k" V 3975 1825 50  0000 L CNN
F 2 "Resistor_SMD:R_0402_1005Metric" V 3830 2025 50  0001 C CNN
F 3 "~" H 3900 2025 50  0001 C CNN
	1    3900 2025
	0    -1   -1   0   
$EndComp
$Comp
L power:GND #PWR05
U 1 1 61159F6F
P 3025 2400
F 0 "#PWR05" H 3025 2150 50  0001 C CNN
F 1 "GND" H 3030 2227 50  0000 C CNN
F 2 "" H 3025 2400 50  0001 C CNN
F 3 "" H 3025 2400 50  0001 C CNN
	1    3025 2400
	-1   0    0    -1  
$EndComp
Wire Wire Line
	2975 2125 3025 2125
Wire Wire Line
	3025 2125 3025 2400
Wire Wire Line
	2975 2225 3175 2225
$Comp
L Device:R R5
U 1 1 6115BE48
P 3175 1825
F 0 "R5" H 3245 1871 50  0000 L CNN
F 1 "10k" H 3245 1780 50  0000 L CNN
F 2 "Resistor_SMD:R_0402_1005Metric" V 3105 1825 50  0001 C CNN
F 3 "~" H 3175 1825 50  0001 C CNN
	1    3175 1825
	-1   0    0    1   
$EndComp
Wire Wire Line
	3175 2225 3175 1975
Wire Wire Line
	2975 2025 3450 2025
$Comp
L Device:R R7
U 1 1 6115DF6A
P 3450 1825
F 0 "R7" H 3520 1871 50  0000 L CNN
F 1 "10k" H 3520 1780 50  0000 L CNN
F 2 "Resistor_SMD:R_0402_1005Metric" V 3380 1825 50  0001 C CNN
F 3 "~" H 3450 1825 50  0001 C CNN
	1    3450 1825
	-1   0    0    1   
$EndComp
Wire Wire Line
	3450 1975 3450 2025
Connection ~ 3450 2025
Text GLabel 3175 1575 1    50   Input ~ 0
VCC
Wire Wire Line
	3175 1575 3175 1675
Wire Wire Line
	3450 1575 3450 1675
Text GLabel 3450 1575 1    50   Input ~ 0
VCC
Wire Wire Line
	3175 2225 3450 2225
Connection ~ 3175 2225
Wire Wire Line
	3750 2225 3825 2225
Wire Wire Line
	3825 2225 3825 2275
Connection ~ 3825 2225
$Comp
L Device:C C5
U 1 1 611712F2
P 4225 2425
F 0 "C5" H 4340 2471 50  0000 L CNN
F 1 "10nF" H 4340 2380 50  0000 L CNN
F 2 "Capacitor_SMD:C_0805_2012Metric" H 4263 2275 50  0001 C CNN
F 3 "~" H 4225 2425 50  0001 C CNN
	1    4225 2425
	-1   0    0    -1  
$EndComp
Wire Wire Line
	3450 2025 3750 2025
Wire Wire Line
	4050 2025 4225 2025
Wire Wire Line
	4225 2025 4225 2275
Wire Wire Line
	3825 2225 4475 2225
Wire Wire Line
	4225 2025 4475 2025
Connection ~ 4225 2025
Text GLabel 4475 2025 2    50   Output ~ 0
EN0_B
Text GLabel 4475 2225 2    50   Output ~ 0
EN0_A
$Comp
L power:GND #PWR03
U 1 1 61179519
P 2325 2400
F 0 "#PWR03" H 2325 2150 50  0001 C CNN
F 1 "GND" H 2330 2227 50  0000 C CNN
F 2 "" H 2325 2400 50  0001 C CNN
F 3 "" H 2325 2400 50  0001 C CNN
	1    2325 2400
	-1   0    0    -1  
$EndComp
Wire Wire Line
	2375 2225 2325 2225
Wire Wire Line
	2325 2225 2325 2400
Wire Wire Line
	2375 2025 2275 2025
$Comp
L Device:R R3
U 1 1 6117D617
P 2275 1850
F 0 "R3" H 2345 1896 50  0000 L CNN
F 1 "10k" H 2345 1805 50  0000 L CNN
F 2 "Resistor_SMD:R_0402_1005Metric" V 2205 1850 50  0001 C CNN
F 3 "~" H 2275 1850 50  0001 C CNN
	1    2275 1850
	-1   0    0    1   
$EndComp
Wire Wire Line
	2275 1600 2275 1700
Text GLabel 2275 1600 1    50   Input ~ 0
VCC
Wire Wire Line
	2275 2000 2275 2025
Connection ~ 2275 2025
Wire Wire Line
	2275 2025 2100 2025
$Comp
L Device:C C1
U 1 1 61181A80
P 1750 2225
F 0 "C1" H 1865 2271 50  0000 L CNN
F 1 "10nF" H 1865 2180 50  0000 L CNN
F 2 "Capacitor_SMD:C_0805_2012Metric" H 1788 2075 50  0001 C CNN
F 3 "~" H 1750 2225 50  0001 C CNN
	1    1750 2225
	-1   0    0    -1  
$EndComp
$Comp
L power:GND #PWR01
U 1 1 61181A86
P 1750 2375
F 0 "#PWR01" H 1750 2125 50  0001 C CNN
F 1 "GND" H 1755 2202 50  0000 C CNN
F 2 "" H 1750 2375 50  0001 C CNN
F 3 "" H 1750 2375 50  0001 C CNN
	1    1750 2375
	-1   0    0    -1  
$EndComp
$Comp
L Device:R R1
U 1 1 61182EA8
P 1950 2025
F 0 "R1" H 2020 2071 50  0000 L CNN
F 1 "10k" H 2020 1980 50  0000 L CNN
F 2 "Resistor_SMD:R_0402_1005Metric" V 1880 2025 50  0001 C CNN
F 3 "~" H 1950 2025 50  0001 C CNN
	1    1950 2025
	0    -1   -1   0   
$EndComp
Wire Wire Line
	1750 2075 1750 2025
Wire Wire Line
	1750 2025 1800 2025
Wire Wire Line
	1750 2025 1525 2025
Connection ~ 1750 2025
Text GLabel 1525 2025 0    50   Output ~ 0
EN0_S
$Comp
L Device:C C4
U 1 1 6119894D
P 3825 3875
F 0 "C4" H 3940 3921 50  0000 L CNN
F 1 "10nF" H 3940 3830 50  0000 L CNN
F 2 "Capacitor_SMD:C_0805_2012Metric" H 3863 3725 50  0001 C CNN
F 3 "~" H 3825 3875 50  0001 C CNN
	1    3825 3875
	-1   0    0    -1  
$EndComp
$Comp
L power:GND #PWR08
U 1 1 61198953
P 3825 4025
F 0 "#PWR08" H 3825 3775 50  0001 C CNN
F 1 "GND" H 3830 3852 50  0000 C CNN
F 2 "" H 3825 4025 50  0001 C CNN
F 3 "" H 3825 4025 50  0001 C CNN
	1    3825 4025
	-1   0    0    -1  
$EndComp
$Comp
L Device:Rotary_Encoder_Switch SW2
U 1 1 61198959
P 2675 3575
F 0 "SW2" H 2675 3208 50  0000 C CNN
F 1 "PEC11R-4020K-S0024" H 2675 3299 50  0000 C CNN
F 2 "Rotary_Encoder:RotaryEncoder_Alps_EC11E-Switch_Vertical_H20mm_CircularMountingHoles" H 2525 3735 50  0001 C CNN
F 3 "~" H 2675 3835 50  0001 C CNN
F 4 "https://www.tme.eu/ie/en/details/pec11r-4215k-s0024/incremental-type-encoders/bourns/" H 2675 3575 50  0001 C CNN "TME"
	1    2675 3575
	-1   0    0    1   
$EndComp
$Comp
L Device:R R10
U 1 1 6119895F
P 3600 3675
F 0 "R10" V 3500 3700 50  0000 L CNN
F 1 "10k" V 3500 3525 50  0000 L CNN
F 2 "Resistor_SMD:R_0402_1005Metric" V 3530 3675 50  0001 C CNN
F 3 "~" H 3600 3675 50  0001 C CNN
	1    3600 3675
	0    -1   1    0   
$EndComp
$Comp
L Device:R R12
U 1 1 61198965
P 3900 3475
F 0 "R12" V 3975 3450 50  0000 L CNN
F 1 "10k" V 3975 3275 50  0000 L CNN
F 2 "Resistor_SMD:R_0402_1005Metric" V 3830 3475 50  0001 C CNN
F 3 "~" H 3900 3475 50  0001 C CNN
	1    3900 3475
	0    -1   -1   0   
$EndComp
$Comp
L power:GND #PWR06
U 1 1 6119896B
P 3025 3850
F 0 "#PWR06" H 3025 3600 50  0001 C CNN
F 1 "GND" H 3030 3677 50  0000 C CNN
F 2 "" H 3025 3850 50  0001 C CNN
F 3 "" H 3025 3850 50  0001 C CNN
	1    3025 3850
	-1   0    0    -1  
$EndComp
Wire Wire Line
	2975 3575 3025 3575
Wire Wire Line
	3025 3575 3025 3850
Wire Wire Line
	2975 3675 3175 3675
$Comp
L Device:R R6
U 1 1 61198974
P 3175 3275
F 0 "R6" H 3245 3321 50  0000 L CNN
F 1 "10k" H 3245 3230 50  0000 L CNN
F 2 "Resistor_SMD:R_0402_1005Metric" V 3105 3275 50  0001 C CNN
F 3 "~" H 3175 3275 50  0001 C CNN
	1    3175 3275
	-1   0    0    1   
$EndComp
Wire Wire Line
	3175 3675 3175 3425
Wire Wire Line
	2975 3475 3450 3475
$Comp
L Device:R R8
U 1 1 6119897C
P 3450 3275
F 0 "R8" H 3520 3321 50  0000 L CNN
F 1 "10k" H 3520 3230 50  0000 L CNN
F 2 "Resistor_SMD:R_0402_1005Metric" V 3380 3275 50  0001 C CNN
F 3 "~" H 3450 3275 50  0001 C CNN
	1    3450 3275
	-1   0    0    1   
$EndComp
Wire Wire Line
	3450 3425 3450 3475
Connection ~ 3450 3475
Text GLabel 3175 3025 1    50   Input ~ 0
VCC
Wire Wire Line
	3175 3025 3175 3125
Wire Wire Line
	3450 3025 3450 3125
Text GLabel 3450 3025 1    50   Input ~ 0
VCC
Wire Wire Line
	3175 3675 3450 3675
Connection ~ 3175 3675
Wire Wire Line
	3750 3675 3825 3675
Wire Wire Line
	3825 3675 3825 3725
Connection ~ 3825 3675
$Comp
L Device:C C6
U 1 1 6119898D
P 4225 3875
F 0 "C6" H 4340 3921 50  0000 L CNN
F 1 "10nF" H 4340 3830 50  0000 L CNN
F 2 "Capacitor_SMD:C_0805_2012Metric" H 4263 3725 50  0001 C CNN
F 3 "~" H 4225 3875 50  0001 C CNN
	1    4225 3875
	-1   0    0    -1  
$EndComp
Wire Wire Line
	3450 3475 3750 3475
Wire Wire Line
	4050 3475 4225 3475
Wire Wire Line
	4225 3475 4225 3725
Wire Wire Line
	3825 3675 4475 3675
Wire Wire Line
	4225 3475 4475 3475
Connection ~ 4225 3475
$Comp
L power:GND #PWR010
U 1 1 61198999
P 4225 4025
F 0 "#PWR010" H 4225 3775 50  0001 C CNN
F 1 "GND" H 4230 3852 50  0000 C CNN
F 2 "" H 4225 4025 50  0001 C CNN
F 3 "" H 4225 4025 50  0001 C CNN
	1    4225 4025
	-1   0    0    -1  
$EndComp
Text GLabel 4475 3475 2    50   Output ~ 0
EN1_B
Text GLabel 4475 3675 2    50   Output ~ 0
EN1_A
$Comp
L power:GND #PWR04
U 1 1 611989A1
P 2325 3850
F 0 "#PWR04" H 2325 3600 50  0001 C CNN
F 1 "GND" H 2330 3677 50  0000 C CNN
F 2 "" H 2325 3850 50  0001 C CNN
F 3 "" H 2325 3850 50  0001 C CNN
	1    2325 3850
	-1   0    0    -1  
$EndComp
Wire Wire Line
	2375 3675 2325 3675
Wire Wire Line
	2325 3675 2325 3850
Wire Wire Line
	2375 3475 2275 3475
$Comp
L Device:R R4
U 1 1 611989AA
P 2275 3300
F 0 "R4" H 2345 3346 50  0000 L CNN
F 1 "10k" H 2345 3255 50  0000 L CNN
F 2 "Resistor_SMD:R_0402_1005Metric" V 2205 3300 50  0001 C CNN
F 3 "~" H 2275 3300 50  0001 C CNN
	1    2275 3300
	-1   0    0    1   
$EndComp
Wire Wire Line
	2275 3050 2275 3150
Text GLabel 2275 3050 1    50   Input ~ 0
VCC
Wire Wire Line
	2275 3450 2275 3475
Connection ~ 2275 3475
Wire Wire Line
	2275 3475 2100 3475
$Comp
L Device:C C2
U 1 1 611989B5
P 1750 3675
F 0 "C2" H 1865 3721 50  0000 L CNN
F 1 "10nF" H 1865 3630 50  0000 L CNN
F 2 "Capacitor_SMD:C_0805_2012Metric" H 1788 3525 50  0001 C CNN
F 3 "~" H 1750 3675 50  0001 C CNN
	1    1750 3675
	-1   0    0    -1  
$EndComp
$Comp
L power:GND #PWR02
U 1 1 611989BB
P 1750 3825
F 0 "#PWR02" H 1750 3575 50  0001 C CNN
F 1 "GND" H 1755 3652 50  0000 C CNN
F 2 "" H 1750 3825 50  0001 C CNN
F 3 "" H 1750 3825 50  0001 C CNN
	1    1750 3825
	-1   0    0    -1  
$EndComp
$Comp
L Device:R R2
U 1 1 611989C1
P 1950 3475
F 0 "R2" H 2020 3521 50  0000 L CNN
F 1 "10k" H 2020 3430 50  0000 L CNN
F 2 "Resistor_SMD:R_0402_1005Metric" V 1880 3475 50  0001 C CNN
F 3 "~" H 1950 3475 50  0001 C CNN
	1    1950 3475
	0    -1   -1   0   
$EndComp
Wire Wire Line
	1750 3525 1750 3475
Wire Wire Line
	1750 3475 1800 3475
Wire Wire Line
	1750 3475 1525 3475
Connection ~ 1750 3475
Text GLabel 1525 3475 0    50   Output ~ 0
EN1_S
Text GLabel 6550 2650 0    50   Input ~ 0
EN0_B
Text GLabel 6550 2550 0    50   Input ~ 0
EN0_A
Text GLabel 6550 2750 0    50   Input ~ 0
EN0_S
Text GLabel 6550 2450 0    50   Output ~ 0
VCC
Text GLabel 6550 2850 0    50   Input ~ 0
EN1_A
Text GLabel 6550 2950 0    50   Input ~ 0
EN1_B
Text GLabel 6550 3050 0    50   Input ~ 0
EN1_S
$Comp
L Connector_Generic:Conn_02x07_Odd_Even J1
U 1 1 611B35A5
P 6900 2750
F 0 "J1" H 6950 3267 50  0000 C CNN
F 1 "1.27mm pitch connector" H 6950 3176 50  0000 C CNN
F 2 "Connector_PinHeader_1.27mm:PinHeader_2x07_P1.27mm_Vertical" H 6900 2750 50  0001 C CNN
F 3 "~" H 6900 2750 50  0001 C CNN
	1    6900 2750
	1    0    0    -1  
$EndComp
Wire Wire Line
	6550 2850 6700 2850
Wire Wire Line
	6700 2950 6550 2950
Wire Wire Line
	6550 3050 6700 3050
Wire Wire Line
	6700 2650 6550 2650
Wire Wire Line
	6550 2550 6700 2550
Wire Wire Line
	6550 2450 6700 2450
Wire Wire Line
	6550 2750 6700 2750
$Comp
L power:GND #PWR011
U 1 1 611BF995
P 7250 3100
F 0 "#PWR011" H 7250 2850 50  0001 C CNN
F 1 "GND" H 7255 2927 50  0000 C CNN
F 2 "" H 7250 3100 50  0001 C CNN
F 3 "" H 7250 3100 50  0001 C CNN
	1    7250 3100
	-1   0    0    -1  
$EndComp
Wire Wire Line
	7200 2450 7250 2450
Wire Wire Line
	7250 2450 7250 2550
Wire Wire Line
	7200 3050 7250 3050
Connection ~ 7250 3050
Wire Wire Line
	7250 3050 7250 3100
Wire Wire Line
	7200 2950 7250 2950
Connection ~ 7250 2950
Wire Wire Line
	7250 2950 7250 3050
Wire Wire Line
	7200 2850 7250 2850
Connection ~ 7250 2850
Wire Wire Line
	7250 2850 7250 2950
Wire Wire Line
	7200 2750 7250 2750
Connection ~ 7250 2750
Wire Wire Line
	7250 2750 7250 2850
Wire Wire Line
	7200 2650 7250 2650
Connection ~ 7250 2650
Wire Wire Line
	7250 2650 7250 2750
Wire Wire Line
	7200 2550 7250 2550
Connection ~ 7250 2550
Wire Wire Line
	7250 2550 7250 2650
Wire Wire Line
	3825 2575 3825 2600
Wire Wire Line
	4225 2575 4225 2600
$Comp
L power:GND #PWR07
U 1 1 611D26FE
P 3825 2600
F 0 "#PWR07" H 3825 2350 50  0001 C CNN
F 1 "GND" H 3830 2427 50  0000 C CNN
F 2 "" H 3825 2600 50  0001 C CNN
F 3 "" H 3825 2600 50  0001 C CNN
	1    3825 2600
	-1   0    0    -1  
$EndComp
$Comp
L power:GND #PWR09
U 1 1 611D2A48
P 4225 2600
F 0 "#PWR09" H 4225 2350 50  0001 C CNN
F 1 "GND" H 4230 2427 50  0000 C CNN
F 2 "" H 4225 2600 50  0001 C CNN
F 3 "" H 4225 2600 50  0001 C CNN
	1    4225 2600
	-1   0    0    -1  
$EndComp
$EndSCHEMATC
